Data cleaning
…
    Mg     Al     Si      S      K     Ca     Ti     Cr     Mn     Fe     Ni 
0.0112 0.0000 0.0000 0.0044 0.0014 0.0048 0.0000 0.0000 0.0000 0.0038 0.0000 
    Cu     Zn     Ga     As     Se     Cd     In     Sn     Te      I     Pb 
0.0043 0.0045 0.0000 0.0000 0.0000 0.0000 0.0000 0.0050 0.0200 0.1000 0.0000 
    Cl     Na 
0.0000 0.0135 

Now, I will estimate which elemental species are representative, by filtering all the species with less than 50% of their values are below the detection limit.

#Round the limit of detection values to 4 decimal places
lod <- lod %>% mutate(`Concentration (ug/cm2)` = round(`Concentration (ug/cm2)`, 4))
print(lod)

# A tibble: 22 × 2
   Species `Concentration (ug/cm2)`
   <chr>                      <dbl>
 1 Mg                        0.0051
 2 Al                        0.0059
 3 Si                        0.0068
 4 S                         0.0026
 5 K                         0.0016
 6 Ca                        0.004 
 7 Ti                        0.0086
 8 Cr                        0.0055
 9 Mn                        0.003 
10 Fe                        0.0043
# ℹ 12 more rows
…
